{
  "project_info": {
    "project_number": "989528849200",
    "firebase_url": "https://vivasmartjourneyandroid.firebaseio.com",
    "project_id": "vivasmartjourneyandroid",
    "storage_bucket": "vivasmartjourneyandroid.appspot.com"
  },
  "client": [
    {
      "client_info": {
        "mobilesdk_app_id": "1:989528849200:android:598990643741b8072b26f5",
        "android_client_info": {
          "package_name": "com.vivasmart.journey"
        }
      },
      "oauth_client": [
        {
          "client_id": "989528849200-ph38ojl9opihc6jvhlfhltmioto83u12.apps.googleusercontent.com",
          "client_type": 3
        }
      ],
      "api_key": [
        {
          "current_key": "AIzaSyDqsPbva_cZiK1XMS-GOEi1UhnvNhv7GbI"
        }
      ],
      "services": {
        "appinvite_service": {
          "other_platform_oauth_client": [
            {
              "client_id": "989528849200-ph38ojl9opihc6jvhlfhltmioto83u12.apps.googleusercontent.com",
              "client_type": 3
            }
          ]
        }
      }
    }
  ],
  "configuration_version": "1"
}